<svg xmlns="http://www.w3.org/2000/svg" width="66.436" height="136.544" viewBox="0 0 66.436 136.544">
  <g id="Fichier_7" data-name="Fichier 7" style="isolation: isolate">
    <g id="Calque_2" data-name="Calque 2" transform="translate(0)">
      <g id="Calque_1" data-name="Calque 1">
        <rect id="Rectangle_70" data-name="Rectangle 70" width="2.825" height="136.544" transform="translate(7.899)" fill="#664e3c"/>
        <rect id="Rectangle_71" data-name="Rectangle 71" width="2.825" height="136.544" transform="translate(55.723)" fill="#664e3c"/>
        <rect id="Rectangle_72" data-name="Rectangle 72" width="44.999" height="5.865" transform="translate(10.724)" fill="#725a49"/>
        <rect id="Rectangle_73" data-name="Rectangle 73" width="44.999" height="5.865" transform="translate(10.724 6.882)" fill="#725a49"/>
        <rect id="Rectangle_74" data-name="Rectangle 74" width="44.999" height="5.865" transform="translate(10.724 13.753)" fill="#725a49"/>
        <rect id="Rectangle_75" data-name="Rectangle 75" width="44.999" height="5.865" transform="translate(10.724 20.635)" fill="#725a49"/>
        <rect id="Rectangle_76" data-name="Rectangle 76" width="44.999" height="5.865" transform="translate(10.724 27.517)" fill="#725a49"/>
        <rect id="Rectangle_77" data-name="Rectangle 77" width="44.999" height="5.865" transform="translate(10.724 34.388)" fill="#725a49"/>
        <rect id="Rectangle_78" data-name="Rectangle 78" width="44.999" height="5.865" transform="translate(10.724 41.27)" fill="#725a49"/>
        <rect id="Rectangle_79" data-name="Rectangle 79" width="44.999" height="5.865" transform="translate(10.724 48.14)" fill="#725a49"/>
        <rect id="Rectangle_80" data-name="Rectangle 80" width="44.999" height="5.865" transform="translate(10.724 61.904)" fill="#826853"/>
        <rect id="Rectangle_81" data-name="Rectangle 81" width="44.999" height="5.865" transform="translate(10.724 68.775)" fill="#826853"/>
        <rect id="Rectangle_82" data-name="Rectangle 82" width="44.999" height="5.865" transform="translate(10.724 75.657)" fill="#826853"/>
        <rect id="Rectangle_83" data-name="Rectangle 83" width="44.999" height="5.865" transform="translate(10.724 82.539)" fill="#826853"/>
        <rect id="Rectangle_84" data-name="Rectangle 84" width="44.999" height="5.865" transform="translate(10.724 89.41)" fill="#826853"/>
        <rect id="Rectangle_85" data-name="Rectangle 85" width="44.999" height="5.865" transform="translate(10.724 96.292)" fill="#826853"/>
        <rect id="Rectangle_86" data-name="Rectangle 86" width="44.999" height="5.865" transform="translate(10.724 103.163)" fill="#826853"/>
        <rect id="Rectangle_87" data-name="Rectangle 87" width="44.999" height="5.865" transform="translate(10.724 110.045)" fill="#826853"/>
        <rect id="Rectangle_88" data-name="Rectangle 88" width="44.999" height="5.865" transform="translate(10.724 116.927)" fill="#826853"/>
        <rect id="Rectangle_89" data-name="Rectangle 89" width="44.999" height="5.865" transform="translate(10.724 123.797)" fill="#826853"/>
        <rect id="Rectangle_90" data-name="Rectangle 90" width="44.999" height="5.865" transform="translate(10.724 130.679)" fill="#826853"/>
        <rect id="Rectangle_91" data-name="Rectangle 91" width="39.484" height="57.87" transform="translate(13.493)" fill="#d6d7d8"/>
        <rect id="Rectangle_92" data-name="Rectangle 92" width="39.484" height="78.561" transform="translate(13.493 57.87)" fill="#fff"/>
        <path id="Tracé_65" data-name="Tracé 65" d="M3.955,82.853h0A3.944,3.944,0,0,0,7.91,78.909V42.6H4.656a1.04,1.04,0,0,0-.972.655L.294,51.776A3.616,3.616,0,0,0,0,53.155V78.909a3.955,3.955,0,0,0,3.955,3.944Z" transform="translate(0 5.54)" fill="#826853"/>
        <path id="Tracé_66" data-name="Tracé 66" d="M55.764,82.853h0a3.944,3.944,0,0,1-3.944-3.944V42.6h3.243a1.04,1.04,0,0,1,.972.655l3.39,8.521a3.616,3.616,0,0,1,.271,1.379V78.909a3.955,3.955,0,0,1-3.933,3.944Z" transform="translate(6.739 5.54)" fill="#826853"/>
        <g id="Groupe_59" data-name="Groupe 59" transform="translate(13.493 1.311)" style="mix-blend-mode: multiply;isolation: isolate">
          <rect id="Rectangle_93" data-name="Rectangle 93" width="39.484" height="1.322" fill="#a634fc"/>
          <rect id="Rectangle_94" data-name="Rectangle 94" width="39.484" height="1.322" transform="translate(0 2.599)" fill="#a634fc"/>
          <rect id="Rectangle_95" data-name="Rectangle 95" width="39.484" height="1.322" transform="translate(0 5.198)" fill="#a634fc"/>
          <rect id="Rectangle_96" data-name="Rectangle 96" width="39.484" height="1.322" transform="translate(0 7.797)" fill="#a634fc"/>
          <rect id="Rectangle_97" data-name="Rectangle 97" width="39.484" height="1.322" transform="translate(0 10.396)" fill="#a634fc"/>
          <rect id="Rectangle_98" data-name="Rectangle 98" width="39.484" height="1.322" transform="translate(0 12.996)" fill="#a634fc"/>
          <rect id="Rectangle_99" data-name="Rectangle 99" width="39.484" height="1.322" transform="translate(0 15.595)" fill="#a634fc"/>
          <rect id="Rectangle_100" data-name="Rectangle 100" width="39.484" height="1.322" transform="translate(0 18.194)" fill="#a634fc"/>
          <rect id="Rectangle_101" data-name="Rectangle 101" width="39.484" height="1.322" transform="translate(0 20.793)" fill="#a634fc"/>
          <rect id="Rectangle_102" data-name="Rectangle 102" width="39.484" height="1.322" transform="translate(0 23.392)" fill="#a634fc"/>
          <rect id="Rectangle_103" data-name="Rectangle 103" width="39.484" height="1.322" transform="translate(0 25.991)" fill="#a634fc"/>
          <rect id="Rectangle_104" data-name="Rectangle 104" width="39.484" height="1.322" transform="translate(0 28.59)" fill="#a634fc"/>
          <rect id="Rectangle_105" data-name="Rectangle 105" width="39.484" height="1.322" transform="translate(0 31.201)" fill="#a634fc"/>
          <rect id="Rectangle_106" data-name="Rectangle 106" width="39.484" height="1.322" transform="translate(0 33.8)" fill="#a634fc"/>
          <rect id="Rectangle_107" data-name="Rectangle 107" width="39.484" height="1.322" transform="translate(0 36.399)" fill="#a634fc"/>
          <rect id="Rectangle_108" data-name="Rectangle 108" width="39.484" height="1.322" transform="translate(0 38.998)" fill="#a634fc"/>
          <rect id="Rectangle_109" data-name="Rectangle 109" width="39.484" height="1.322" transform="translate(0 41.597)" fill="#a634fc"/>
          <rect id="Rectangle_110" data-name="Rectangle 110" width="39.484" height="1.322" transform="translate(0 44.196)" fill="#a634fc"/>
          <rect id="Rectangle_111" data-name="Rectangle 111" width="39.484" height="1.322" transform="translate(0 46.796)" fill="#a634fc"/>
          <rect id="Rectangle_112" data-name="Rectangle 112" width="39.484" height="1.322" transform="translate(0 49.395)" fill="#a634fc"/>
          <rect id="Rectangle_113" data-name="Rectangle 113" width="39.484" height="1.322" transform="translate(0 51.994)" fill="#a634fc"/>
          <rect id="Rectangle_114" data-name="Rectangle 114" width="39.484" height="1.322" transform="translate(0 54.593)" fill="#a634fc"/>
          <rect id="Rectangle_115" data-name="Rectangle 115" width="39.484" height="1.322" transform="translate(0 57.192)" fill="#a634fc"/>
          <rect id="Rectangle_116" data-name="Rectangle 116" width="39.484" height="1.322" transform="translate(0 59.791)" fill="#a634fc"/>
          <rect id="Rectangle_117" data-name="Rectangle 117" width="39.484" height="1.322" transform="translate(0 62.39)" fill="#a634fc"/>
          <rect id="Rectangle_118" data-name="Rectangle 118" width="39.484" height="1.322" transform="translate(0 64.989)" fill="#a634fc"/>
          <rect id="Rectangle_119" data-name="Rectangle 119" width="39.484" height="1.322" transform="translate(0 67.589)" fill="#a634fc"/>
          <rect id="Rectangle_120" data-name="Rectangle 120" width="39.484" height="1.322" transform="translate(0 70.188)" fill="#a634fc"/>
          <rect id="Rectangle_121" data-name="Rectangle 121" width="39.484" height="1.322" transform="translate(0 72.787)" fill="#a634fc"/>
          <rect id="Rectangle_122" data-name="Rectangle 122" width="39.484" height="1.322" transform="translate(0 75.386)" fill="#a634fc"/>
          <rect id="Rectangle_123" data-name="Rectangle 123" width="39.484" height="1.322" transform="translate(0 77.985)" fill="#a634fc"/>
          <rect id="Rectangle_124" data-name="Rectangle 124" width="39.484" height="1.322" transform="translate(0 80.584)" fill="#a634fc"/>
          <rect id="Rectangle_125" data-name="Rectangle 125" width="39.484" height="1.322" transform="translate(0 83.183)" fill="#a634fc"/>
          <rect id="Rectangle_126" data-name="Rectangle 126" width="39.484" height="1.322" transform="translate(0 85.782)" fill="#a634fc"/>
          <rect id="Rectangle_127" data-name="Rectangle 127" width="39.484" height="1.322" transform="translate(0 88.381)" fill="#a634fc"/>
          <rect id="Rectangle_128" data-name="Rectangle 128" width="39.484" height="1.322" transform="translate(0 90.981)" fill="#a634fc"/>
          <rect id="Rectangle_129" data-name="Rectangle 129" width="39.484" height="1.322" transform="translate(0 93.58)" fill="#a634fc"/>
          <rect id="Rectangle_130" data-name="Rectangle 130" width="39.484" height="1.322" transform="translate(0 96.179)" fill="#a634fc"/>
          <rect id="Rectangle_131" data-name="Rectangle 131" width="39.484" height="1.322" transform="translate(0 98.778)" fill="#a634fc"/>
          <rect id="Rectangle_132" data-name="Rectangle 132" width="39.484" height="1.322" transform="translate(0 101.377)" fill="#a634fc"/>
          <rect id="Rectangle_133" data-name="Rectangle 133" width="39.484" height="1.322" transform="translate(0 103.976)" fill="#a634fc"/>
          <rect id="Rectangle_134" data-name="Rectangle 134" width="39.484" height="1.322" transform="translate(0 106.575)" fill="#a634fc"/>
          <rect id="Rectangle_135" data-name="Rectangle 135" width="39.484" height="1.322" transform="translate(0 109.174)" fill="#a634fc"/>
          <rect id="Rectangle_136" data-name="Rectangle 136" width="39.484" height="1.322" transform="translate(0 111.774)" fill="#a634fc"/>
          <rect id="Rectangle_137" data-name="Rectangle 137" width="39.484" height="1.322" transform="translate(0 114.373)" fill="#a634fc"/>
          <rect id="Rectangle_138" data-name="Rectangle 138" width="39.484" height="1.322" transform="translate(0 116.972)" fill="#a634fc"/>
          <rect id="Rectangle_139" data-name="Rectangle 139" width="39.484" height="1.322" transform="translate(0 119.571)" fill="#a634fc"/>
          <rect id="Rectangle_140" data-name="Rectangle 140" width="39.484" height="1.322" transform="translate(0 122.181)" fill="#a634fc"/>
          <rect id="Rectangle_141" data-name="Rectangle 141" width="39.484" height="1.322" transform="translate(0 124.781)" fill="#a634fc"/>
          <rect id="Rectangle_142" data-name="Rectangle 142" width="39.484" height="1.322" transform="translate(0 127.38)" fill="#a634fc"/>
          <rect id="Rectangle_143" data-name="Rectangle 143" width="39.484" height="1.322" transform="translate(0 129.979)" fill="#a634fc"/>
          <rect id="Rectangle_144" data-name="Rectangle 144" width="39.484" height="1.322" transform="translate(0 132.578)" fill="#a634fc"/>
        </g>
        <line id="Ligne_7" data-name="Ligne 7" x2="39.473" transform="translate(13.493 57.87)" fill="none" stroke="#e2e2e2" stroke-miterlimit="10" stroke-width="0.15"/>
      </g>
    </g>
  </g>
</svg>
