<svg id="Group_155" data-name="Group 155" xmlns="http://www.w3.org/2000/svg" xmlns:xlink="http://www.w3.org/1999/xlink" width="62.833" height="44.897" viewBox="0 0 62.833 44.897">
  <defs>
    <clipPath id="clip-path">
      <rect id="Rectangle_349" data-name="Rectangle 349" width="62.833" height="44.897" fill="#fff"/>
    </clipPath>
  </defs>
  <g id="Group_154" data-name="Group 154" clip-path="url(#clip-path)">
    <path id="Path_134" data-name="Path 134" d="M21.464,30.938A13.469,13.469,0,1,1,34.933,17.469,13.471,13.471,0,0,1,21.464,30.938m0-22.448a8.979,8.979,0,1,0,8.979,8.979A8.98,8.98,0,0,0,21.464,8.49" transform="translate(9.953 4.979)" fill="#fff"/>
    <path id="Path_135" data-name="Path 135" d="M31.417,44.9C14.693,44.9.954,24.559.37,23.683a2.243,2.243,0,0,1,0-2.469C.954,20.338,14.693,0,31.417,0S61.879,20.338,62.463,21.214a2.243,2.243,0,0,1,0,2.469C61.879,24.559,48.141,44.9,31.417,44.9M4.995,22.448C8.16,26.714,19.272,40.407,31.417,40.407S54.673,26.714,57.838,22.448C54.673,18.183,43.561,4.49,31.417,4.49S8.16,18.183,4.995,22.448" transform="translate(0)" fill="#fff"/>
  </g>
</svg>
