<svg xmlns="http://www.w3.org/2000/svg" width="29.036" height="23.731" viewBox="0 0 29.036 23.731">
  <path id="Path_6" data-name="Path 6" d="M29.957,41.187h-1.9L26.839,37.38a4.7,4.7,0,0,0-4.5-3.28H11.571a4.69,4.69,0,0,0-4.5,3.28L5.861,41.187H4a1.5,1.5,0,0,0-1.5,1.5v.85a1.5,1.5,0,0,0,1.5,1.5h.526a20.551,20.551,0,0,0-.445,4.171v7.127a1.5,1.5,0,0,0,1.5,1.5h2.47a1.5,1.5,0,0,0,1.5-1.5V54.025H24.49v2.308a1.5,1.5,0,0,0,1.5,1.5h2.47a1.5,1.5,0,0,0,1.5-1.5V49.165a20.55,20.55,0,0,0-.445-4.171h.526a1.5,1.5,0,0,0,1.5-1.5v-.85A1.652,1.652,0,0,0,29.957,41.187ZM8.494,42.726l1.417-4.414a1.738,1.738,0,0,1,1.66-1.215H22.344A1.738,1.738,0,0,1,24,38.312l1.417,4.414a.3.3,0,0,1-.283.4H8.777A.3.3,0,0,1,8.494,42.726Zm3.118,7.249h-3a.942.942,0,0,1-.931-.931V47.626a.9.9,0,0,1,1.053-.891l2.794.445a.858.858,0,0,1,.729.729l.2.972A.849.849,0,0,1,11.612,49.975Zm14.619-.891a.942.942,0,0,1-.931.931h-3a.911.911,0,0,1-.891-1.093l.2-.972a.959.959,0,0,1,.729-.729l2.794-.445a.9.9,0,0,1,1.053.891v1.417Z" transform="translate(-2.5 -34.1)" fill="#fecc2f"/>
</svg>
