<svg id="Group_116" data-name="Group 116" xmlns="http://www.w3.org/2000/svg" width="35.553" height="35.563" viewBox="0 0 35.553 35.563">
  <g id="Group_113" data-name="Group 113" transform="translate(0 0)">
    <g id="Group_112" data-name="Group 112">
      <path id="Path_71" data-name="Path 71" d="M23.8,22.022a1.643,1.643,0,0,0-.525-1.363,1.847,1.847,0,0,0-1.178-.344h-.879v0a.859.859,0,0,0,0,1.717v0H21.3a.827.827,0,0,1,.776.781v1.792a.831.831,0,0,1-.806.78h-.047a.832.832,0,0,1-.8-.79V22.515a.506.506,0,0,0-.505-.507H17.826a.83.83,0,0,1-.777-.81v-.036a.83.83,0,0,1,.806-.816h.021a.86.86,0,0,0,.859-.861V16.1a.83.83,0,0,1,.795-.832h.033a.86.86,0,0,0,.859-.857v0c0-.037,0-.07,0-.1a.83.83,0,0,1,.711-.726l.058-.005.032,0h.014v0a.853.853,0,0,0,.738-.476,3.09,3.09,0,0,0,.135-1.169V7.643a.859.859,0,1,0-1.718,0v3.38h.016l0,0H20.39a.828.828,0,0,1-.807.829h-.369a.505.505,0,0,0-.5.506v.3c0,.016,0,.034,0,.051h0a.829.829,0,0,1-.807.829h-.023a.829.829,0,0,1-.823-.809v-.015h0v-.361a.5.5,0,0,0-.5-.506h-.363a.828.828,0,0,1-.821-.781c0-.02,0-.039,0-.062V11h0a.856.856,0,0,0-1.712,0h0v1.757a.83.83,0,0,1-.806.792H8.562a1.567,1.567,0,0,0-1.255.641,1.906,1.906,0,0,0-.414,1.052,1.605,1.605,0,0,0-1.341.567,1.871,1.871,0,0,0-.347,1.148v1.668H4.286v.006a.861.861,0,0,0,0,1.711v.006h1.8a.829.829,0,0,1,.807.808v.015h0v.019h0v.049a.533.533,0,0,0,.029.17h0a.858.858,0,0,0,1.638.07h0a.567.567,0,0,0,.052-.242v-.077a.828.828,0,0,1,.806-.811h.158l.01,0,0-.01,0-.007a.859.859,0,0,0-.145-1.7v0H9.417a.828.828,0,0,1-.807-.809V17.8h0V16.093a.83.83,0,0,1,.807-.821h1.767a.829.829,0,0,1,.769.807v.015h0v.361a.505.505,0,0,0,.505.506h2.392a.5.5,0,0,0,.5-.506v-.34h0v-.032a.829.829,0,0,1,.785-.811h.1a.829.829,0,0,1,.769.762v1.79a.827.827,0,0,1-.8.8H14.363a.86.86,0,0,0-.859.844l0,.015h0V21.2a.386.386,0,0,0,0,.048.86.86,0,0,0,.786.787.168.168,0,0,0,.03.006h1.922a.828.828,0,0,1,.774.75v1.755a.772.772,0,0,0,.058.292h0a.857.857,0,0,0,.813.585l.059,0a.83.83,0,0,1,.756.809v.014h0v0h0a.831.831,0,0,1-.808.833h-.015a.86.86,0,0,0-.85.8v.025c0,.009,0,.02,0,.032s0,.022,0,.032c0,.155-.007.44-.012.638,0,.076,0,1.045,0,1.083a.858.858,0,0,0,1.713.075h.005v-.967h.834A.146.146,0,0,0,19.6,28.8a.86.86,0,0,0,.819-.846v0h0a.83.83,0,0,1,.807-.83h.976a1.55,1.55,0,0,0,1.22-.44,1.852,1.852,0,0,0,.372-1.268V22.022ZM7.619,27.082H4.511a1,1,0,0,0-.994,1v3.116a1,1,0,0,0,.994,1H7.619a1,1,0,0,0,.994-1V28.078A1,1,0,0,0,7.619,27.082ZM28.136,8.5h3.106a1,1,0,0,0,.993-1V4.4a1,1,0,0,0-.993-1H28.136a1,1,0,0,0-.994,1V7.507A1,1,0,0,0,28.136,8.5ZM1.626,11.887H10.5A1.486,1.486,0,0,0,11.985,10.4V1.5A1.485,1.485,0,0,0,10.5.015H1.626A1.486,1.486,0,0,0,.143,1.5v8.9A1.485,1.485,0,0,0,1.626,11.887Zm.235-9.511A.637.637,0,0,1,2.5,1.737H9.63a.639.639,0,0,1,.637.639v7.15a.638.638,0,0,1-.637.639H2.5a.639.639,0,0,1-.637-.639ZM10.5,23.705H1.626A1.485,1.485,0,0,0,.143,25.192v8.9a1.485,1.485,0,0,0,1.483,1.488H10.5a1.485,1.485,0,0,0,1.483-1.488v-8.9A1.486,1.486,0,0,0,10.5,23.705Zm-.235,9.512a.639.639,0,0,1-.637.639H2.5a.64.64,0,0,1-.637-.639V26.066a.637.637,0,0,1,.637-.639H9.63a.637.637,0,0,1,.637.639v7.15Zm14.987-21.33H34.13A1.484,1.484,0,0,0,35.613,10.4V1.5A1.484,1.484,0,0,0,34.13.015H25.254A1.486,1.486,0,0,0,23.77,1.5v8.9A1.485,1.485,0,0,0,25.254,11.887Zm.235-9.511a.638.638,0,0,1,.637-.639h7.132a.636.636,0,0,1,.451.187.646.646,0,0,1,.187.452v7.15a.638.638,0,0,1-.187.452.63.63,0,0,1-.451.187H26.126a.639.639,0,0,1-.637-.639ZM14.5,5.121h.825c0,.048,0,.095,0,.138v.695a.857.857,0,1,0,1.715,0V4.17a.833.833,0,0,1,.806-.739h.019a.831.831,0,0,1,.831.81v.015h0v1.7a.859.859,0,1,0,1.718,0V3.429h.83a.862.862,0,0,0,0-1.723h-.83V.876a.861.861,0,0,0-.859-.861.535.535,0,0,0-.054,0l-.054,0a.751.751,0,0,0-.75.752V.875a.83.83,0,0,1-.811.829h-.016v0h0a.829.829,0,0,1-.827-.753c0-.025,0-.048,0-.078h0a.857.857,0,1,0-1.714,0v.708c0,.044,0,.089,0,.137V3.4h-.825a.861.861,0,0,0,0,1.722Zm2.543,27.9a.861.861,0,0,0-.859-.862l-.047,0h-.781v-.846h0a.859.859,0,0,0-1.717.024h0v2.528a1.673,1.673,0,0,0,.491,1.321,1.783,1.783,0,0,0,1.211.386,1.63,1.63,0,0,0,1.342-.537,1.835,1.835,0,0,0,.361-1.17C17.047,33.379,17.048,33.5,17.048,33.019ZM33.891,21.177a.859.859,0,1,0,.86-.862A.86.86,0,0,0,33.891,21.177Zm-4.093,7.6v0h-1.86a.833.833,0,0,1-.765-.811v-.015h0v0a.832.832,0,0,1,.8-.833h1.719a.861.861,0,0,0,0-1.721h0a.829.829,0,0,1-.826-.788V22.843a.829.829,0,0,1,.806-.8h1.709a.862.862,0,0,0,0-1.725H29a.5.5,0,0,0-.052,0H27.917a.832.832,0,0,1-.743-.808v-.015h0v-.838a1.746,1.746,0,0,0,1.177-.43,1.664,1.664,0,0,0,.511-1.261h.906v0a.86.86,0,0,0-.075-1.716H29l-.064,0h-2.6a.881.881,0,0,0-.88.861h0a.829.829,0,0,1-.808.829H23.273l-.054,0H21.253a.863.863,0,0,0,0,1.725h3.389a.827.827,0,0,1,.811.809v.015h0v4.236a1.719,1.719,0,0,0,.45,1.292,1.739,1.739,0,0,0,1.239.415v.829a.829.829,0,0,1-.807.829h-.015v0h-.852a1.822,1.822,0,0,0-1.126.354,1.667,1.667,0,0,0-.576,1.393,1.565,1.565,0,0,0,.567,1.36,1.9,1.9,0,0,0,1.122.307,1.705,1.705,0,0,0,.452,1.3,1.762,1.762,0,0,0,1.235.4v2.478a.421.421,0,0,0,0,.043.859.859,0,1,0,1.718,0h0V31.285a.829.829,0,0,1,.806-.787H29.8v0a.859.859,0,0,0,0-1.717ZM.921,15.271H4.377a.861.861,0,0,0,0-1.722H.921a.861.861,0,0,0,0,1.722ZM14.454,29.589a.861.861,0,0,0,.86-.861V24.566a.859.859,0,1,0-1.718,0v4.162A.86.86,0,0,0,14.454,29.589Zm20.3-12.657H33.068a.861.861,0,0,0,0,1.722h1.683a.861.861,0,0,0,0-1.722ZM24.626,32.157a.859.859,0,0,0-.859.862v1.69a.859.859,0,1,0,1.717,0v-1.69A.861.861,0,0,0,24.626,32.157Zm10.125,1.686h-.1a.829.829,0,0,1-.723-.791v-.033a.86.86,0,1,0-1.719,0v.09a.829.829,0,0,1-.8.734h-.022a.864.864,0,0,0,0,1.727h3.37a.864.864,0,0,0,0-1.727ZM2.668,18.655h.021a.861.861,0,0,0,0-1.722H1.845a1.829,1.829,0,0,0-1.028.436,1.807,1.807,0,0,0-.675,1.438v2.371a.859.859,0,1,0,1.718,0V19.485A.828.828,0,0,1,2.668,18.655Zm20.271-3.384a.861.861,0,1,0-.86-.861A.86.86,0,0,0,22.939,15.271ZM17.83,7.681a.861.861,0,0,0-.86.862v1.692a.859.859,0,1,0,1.718,0V8.543A.861.861,0,0,0,17.83,7.681Zm16.925,5.867H33.068a.861.861,0,0,0,0,1.722h1.688a.861.861,0,0,0,0-1.722Zm0,10.15H31.376a.862.862,0,0,0,0,1.723h3.377a.862.862,0,0,0,0-1.723Z" transform="translate(-0.062 -0.015)" fill="#fff"/>
    </g>
  </g>
  <g id="Group_115" data-name="Group 115" transform="translate(3.529 3.406)">
    <g id="Group_114" data-name="Group 114">
      <path id="Path_72" data-name="Path 72" d="M14.069,9.591H10.976a.99.99,0,0,0-.99.99v3.093a.99.99,0,0,0,.99.99h3.093a.991.991,0,0,0,.99-.99V10.581A.99.99,0,0,0,14.069,9.591Zm3.5,16.831a.856.856,0,1,0,.855.855A.856.856,0,0,0,17.571,26.422Zm0-3.4a.856.856,0,1,0,.856.856A.856.856,0,0,0,17.571,23.018ZM41.1,28.112a.855.855,0,1,0-.856-.855A.854.854,0,0,0,41.1,28.112ZM39.423,34.8a.856.856,0,1,0,.855.855A.856.856,0,0,0,39.423,34.8Zm1.683,1.671a.856.856,0,1,0,.855.855A.855.855,0,0,0,41.105,36.476Zm-3.358,0a.855.855,0,1,0,.856.855A.856.856,0,0,0,37.747,36.476ZM27.655,39.851a.856.856,0,1,0,.856.856A.856.856,0,0,0,27.655,39.851Zm0-3.6a.856.856,0,1,0,.856.856A.856.856,0,0,0,27.655,36.247Z" transform="translate(-9.986 -9.591)" fill="#fff"/>
    </g>
  </g>
</svg>
