<svg xmlns="http://www.w3.org/2000/svg" xmlns:xlink="http://www.w3.org/1999/xlink" width="37.689" height="36.698" viewBox="0 0 37.689 36.698">
  <defs>
    <filter id="Union_1" x="0" y="0" width="37.689" height="36.698" filterUnits="userSpaceOnUse">
      <feOffset input="SourceAlpha"/>
      <feGaussianBlur stdDeviation="1" result="blur"/>
      <feFlood flood-opacity="0.161"/>
      <feComposite operator="in" in2="blur"/>
      <feComposite in="SourceGraphic"/>
    </filter>
  </defs>
  <g id="Component_10_4" data-name="Component 10 – 4" transform="translate(3.5 3.519)">
    <g id="Group_52" data-name="Group 52" transform="translate(-296 -764.215)">
      <g id="Group_51" data-name="Group 51" transform="translate(0 -0.785)">
        <g id="Group_50" data-name="Group 50" transform="translate(296 765)">
          <g id="Group_55" data-name="Group 55">
            <g id="Group_56" data-name="Group 56">
              <g transform="matrix(1, 0, 0, 1, -3.5, -3.52)" filter="url(#Union_1)">
                <path id="Union_1-2" data-name="Union 1" d="M-4799,366.463a15.35,15.35,0,0,1,9.351-14.129,8.929,8.929,0,0,1-2.681-4.505,8.929,8.929,0,0,1,6.563-10.789,8.93,8.93,0,0,1,10.789,6.564,8.931,8.931,0,0,1-2.681,8.732,15.345,15.345,0,0,1,9.348,14.128Zm9.953-20.737a5.391,5.391,0,0,0,5.393,5.393,5.4,5.4,0,0,0,5.394-5.393,5.4,5.4,0,0,0-5.394-5.393A5.391,5.391,0,0,0-4789.047,345.726Zm2.528,0a2.865,2.865,0,0,1,2.867-2.864,2.865,2.865,0,0,1,2.864,2.864,2.867,2.867,0,0,1-2.864,2.866A2.867,2.867,0,0,1-4786.519,345.724Z" transform="translate(4802.5 -333.27)" fill="#fff" stroke="rgba(0,0,0,0)" stroke-miterlimit="10" stroke-width="1"/>
              </g>
            </g>
          </g>
        </g>
      </g>
    </g>
  </g>
</svg>
